Gene_Symbol	Name	Entrez_GeneId	Genome_Location	Chr_Band	Somatic	Germline	TTSomatic	TTGermline	Cancer_Syndrome	Molecular_Genetics	Mutation_Types
ABI1	abl-interactor 1	10006	10:26748570-26860863	10p11.2	yes		AML			Dom	T
ABL1	v-abl Abelson murine leukemia viral oncogene homolog 1	25	9:130835447-130885683	9q34.1	yes		CML, ALL, T-ALL			Dom	T, Mis
ABL2	c-abl oncogene 2, non-receptor tyrosine kinase	27	1:179107718-179143044	1q24-q25	yes		AML			Dom	T
ACKR3	atypical chemokine receptor 3	57007	2:-	2q37.3	yes		lipoma			Dom	T
ACSL3	acyl-CoA synthetase long-chain family member 3	2181	2:222908773-222941654	2q36	yes		prostate			Dom	T
ACSL6	acyl-CoA synthetase long-chain family member 6	23305	5:131954234-132011553	5q31.1	yes		AML, AEL			Dom	T
ACVR1	activin A receptor, type I	90	2:157737531-157799493	2q23-q24	yes		DIPG			Dom	Mis
AFF1	AF4/FMR2 family, member 1	4299	4:87007409-87135702	4q21	yes		AL			Dom	T
AFF3	AF4/FMR2 family, member 3	3899	2:99551474-100104454	2q11.2-q12	yes		ALL, T-ALL			Dom	T
AFF4	AF4/FMR2 family, member 4	27125	5:132881059-132937189	5q31	yes		ALL			Dom	T
AKAP9	A kinase (PRKA) anchor protein (yotiao) 9	10142	7:91941100-92110159	7q21-q22	yes		papillary thyroid			Dom	T
AKT1	v-akt murine thymoma viral oncogene homolog 1	207	14:104770341-104792643	14q32.32	yes		breast, colorectal, ovarian, NSCLC			Dom	Mis
AKT2	v-akt murine thymoma viral oncogene homolog 2	208	19:40233872-40265267	19q13.1-q13.2	yes		ovarian, pancreatic			Dom	A
ALDH2	aldehyde dehydrogenase 2 family (mitochondrial)	217	12:111766983-111809575	12q24.2	yes		leiomyoma			Dom	T
ALK	anaplastic lymphoma kinase (Ki-1)	238	2:29193224-29920659	2p23	yes	yes	ALCL, NSCLC, neuroblastoma, inflammatory myofibroblastic tumour, Spitzoid tumour	neuroblastoma	familial neuroblastoma	Dom	T, Mis, A
AMER1	APC membrane recruitment protein 1	139285	X:64186117-64193286	Xq11.2	yes		Wilms tumour			Rec	F, D, N, Mis
APC	adenomatous polyposis of the colon gene	324	5:112754891-112844126	5q21	yes	yes	colorectal, pancreatic, desmoid, hepatoblastoma, glioma, other CNS	colorectal, pancreatic, desmoid, hepatoblastoma, glioma, other CNS	adenomatous polyposis coli; Turcot syndrome	Rec	D, Mis, N, F, S
ARHGAP26	Rho GTPase activating protein 26	23092	5:142770762-143222446	5q31	yes		AML, MDS			Dom	T, F, S
ARHGEF12	RHO guanine nucleotide exchange factor (GEF) 12 (LARG)	23365	11:120337244-120485077	11q23.3	yes		AML			Dom	T
ARID1A	AT rich interactive domain 1A (SWI-like)	8289	1:26696404-26780756	1p35.3	yes		clear cell ovarian carcinoma, RCC, breast			Rec	Mis, N, F, S, D, T
ARID1B	AT rich interactive domain 1B	57492	6:156778104-157207891	6q25.1	yes		breast, hepatocellular carcinoma			Rec	Mis, F, N, O
ARID2	AT rich interactive domain 2	196528	12:45729837-45905078	12q12	yes		hepatocellular carcinoma			Rec	N, S, F
ARNT	aryl hydrocarbon receptor nuclear translocator	405	1:150812021-150876567	1q21	yes		AML			Dom	T
ASPSCR1	alveolar soft part sarcoma chromosome region, candidate 1	79058	17:81977648-82017323	17q25	yes		alveolar soft part sarcoma			Dom	T
ASXL1	additional sex combs like 1	171023	20:32358776-32437338	20q11.1	yes		MDS, CMML			Rec	F, N, Mis
ATF1	activating transcription factor 1	466	12:50780147-50819780	12q13	yes		malignant melanoma of soft parts, angiomatoid fibrous histiocytoma			Dom	T
ATIC	5-aminoimidazole-4-carboxamide ribonucleotide formyltransferase/IMP cyclohydrolase	471	2:215312144-215349656	2q35	yes		ALCL			Dom	T
ATM	ataxia telangiectasia mutated	472	11:108227625-108365508	11q22.3	yes	yes	T-PLL	leukaemia, lymphoma, medulloblastoma, glioma	ataxia-telangiectasia	Rec	D, Mis, N, F, S
ATP1A1	ATPase, Na+/K+ transporting, alpha 1 polypeptide	476	1:116373512-116404444	1p21	yes		adrenal aldosterone producing adenoma			Dom	Mis, O
ATP2B3	ATPase, Ca++ transporting, plasma membrane 3	492	X:153536248-153580003	Xq28	yes		adrenal aldosterone producing adenoma			Dom	O
ATR	ATR serine/threonine kinase	545	3:142449429-142578704	3q23	yes	yes	endometrial, gastric	oropharyngeal	familial cutaneous telangiectasia and cancer sydrome		F
ATRX	alpha thalassemia/mental retardation syndrome X-linked	546	X:77508351-77786001	Xq21.1	yes		pancreatic neuroendocrine tumours, paediatric GBM			Rec	Mis, F, N
AXIN1	axin 1	8312	16:288122-347025	16p13.3	yes		colorectal, endometrial, prostate, hepatocellular carcinoma, hepatoblastoma, sporadic medulloblastoma			Rec	D, Mis, N, F, S
AXIN2	axin 2	8313	17:65529976-65558620	17q24.1	yes	yes	colorectal carcinoma, stomach carcinoma, hepatocellular carcinoma	colorectal carcinoma	oligodontia-colorectal cancer syndrome	Rec	Mis, F, N
BAP1	BRCA1 associated protein-1 (ubiquitin carboxy-terminal hydrolase)	8314	3:52402288-52409878	3p21.31-p21.2	yes	yes	uveal melanoma, breast, NSCLC, RCC	mesothelioma, uveal melanoma		Rec	N, Mis, F, S, O
BCL10	B-cell CLL/lymphoma 10	8915	1:85267627-85276352	1p22	yes		MALT			Dom	T
BCL11A	B-cell CLL/lymphoma 11A	53335	2:60460404-60553270	2p13	yes		B-CLL			Dom	T
BCL11B	B-cell CLL/lymphoma 11B  (CTIP2)	64919	14:99174151-99271218	14q32.1	yes		T-ALL			Dom	T
BCL2	B-cell CLL/lymphoma 2	596	18:63128625-63318666	18q21.3	yes		NHL, CLL			Dom	T
BCL3	B-cell CLL/lymphoma 3	602	19:44748791-44759615	19q13	yes		CLL			Dom	T
BCL5	B-cell CLL/lymphoma 5	603	17:-	17q22	yes		CLL			Dom	T
BCL6	B-cell CLL/lymphoma 6	604	3:187722458-187733693	3q27	yes		NHL, CLL			Dom	T, Mis
BCL7A	B-cell CLL/lymphoma 7A	605	12:122022092-122059163	12q24.1	yes		BNHL			Dom	T
BCL9	B-cell CLL/lymphoma 9	607	1:147611837-147624864	1q21	yes		B-ALL			Dom	T
BCOR	BCL6 corepressor	54880	X:40052109-40077929	Xp11.4	yes		retinoblastoma, AML, APL (translocation)			Rec	F, N, S, T
BCR	breakpoint cluster region	613	22:23180961-23315522	22q11.21	yes		CML, ALL, AML			Dom	T
BIRC3	baculoviral IAP repeat-containing 3	330	11:102324510-102337102	11q22	yes		CLL, MALT, MCL, MM			Dom	D, F, N, T, Mis
BLM	Bloom Syndrome	641	15:90747393-90815279	15q26.1		yes		leukaemia, lymphoma, skin squamous cell, other tumour types	Bloom syndrome	Rec	Mis, N, F
BMPR1A	bone morphogenetic protein receptor, type IA	657	10:86876019-86923719	10q22.3		yes		gastrointestinal polyps	juvenile polyposis	Rec	Mis, N, F
BRAF	v-raf murine sarcoma viral oncogene homolog B1	673	7:140734597-140924703	7q34	yes		melanoma, colorectal, papillary thyroid, borderline ovarian, NSCLC, cholangiocarcinoma, pilocytic astrocytoma, Spitzoid tumour, pancreas acinar carcinoma, melanocytic nevus, prostate, gastric			Dom	Mis, T, O
BRCA1	familial breast/ovarian cancer gene 1	672	17:43045678-43124096	17q21	yes	yes	ovarian	breast, ovarian	hereditary breast/ovarian cancer	Rec	D, Mis, N, F, S
BRCA2	familial breast/ovarian cancer gene 2	675	13:32316461-32398770	13q12	yes	yes	breast, ovarian, pancreatic	breast, ovarian, pancreatic, leukaemia  (FANCB, FANCD1)	hereditary breast/ovarian cancer	Rec	D, Mis, N, F, S
BRD3	bromodomain containing 3	8019	9:134033590-134053477	9q34	yes		lethal midline carcinoma of young people			Dom	T
BRD4	bromodomain containing 4	23476	19:15249280-15273099	19p13.1	yes		lethal midline carcinoma of young people			Dom	T
BRIP1	BRCA1 interacting protein C-terminal helicase 1	83990	17:61683296-61861539	17q22		yes		AML, leukaemia, breast	Fanconi anaemia J, breast cancer susceptiblity	Rec	F, N, Mis
BTG1	B-cell translocation gene 1, anti-proliferative	694	12:92144080-92145535	12q22	yes		B-CLL			Dom	T
BUB1B	BUB1 budding uninhibited by benzimidazoles 1 homolog beta (yeast)	701	15:40161221-40220759	15q15		yes		rhabdomyosarcoma	mosaic variegated aneuploidy	Rec	Mis, N, F, S
C12orf9	chromosome 12 open reading frame 9	93669	12:-	12q14.3	yes		lipoma			Dom	T
C15orf65	chromosome 15 open reading frame 65	145788	15:-	15q21.3	yes		PMBL, Hodgkin lymphoma			Dom	T
C2orf44	chromosome 2 open reading frame 44	80304	2:24030933-24039494	2p23.3	yes		colorectal			Dom	T
CACNA1D	calcium channel, voltage-dependent, L type, alpha 1D subunit	776	3:53495167-53811406	3p14.3	yes		adrenal aldosterone producing adenoma			Dom	Mis
CALR	calreticulin	811	19:12938680-12943913	19p13.3-p13.2	yes		MPN, MDS			Dom	F, Mis
CAMTA1	calmodulin binding transcription activator 1	23261	1:6785531-7766491	1p36.31-p36.23	yes		epithelioid haemangioendothelioma			Dom	T
CANT1	calcium activated nucleotidase 1	124583	17:78993550-78997622	17q25	yes		prostate			Dom	T
CARD11	caspase recruitment domain family, member 11	84433	7:2906638-2958506	7p22	yes		DLBCL			Dom	Mis
CARS	cysteinyl-tRNA synthetase	833	11:3001114-3057367	11p15.5	yes		ALCL			Dom	T
CASC5	cancer susceptibility candidate 5	57082	15:40602933-40654977	15q14	yes		AML			Dom	T
CASP8	caspase 8, apoptosis-related cysteine peptidase	841	2:201266487-201286594	2q33-q34	yes		hepatocellular, oral squamous cell, breast			Rec	N, S, F
CBFA2T3	core-binding factor, runt domain, alpha subunit 2; translocated to, 3 (MTG-16)	863	16:88876976-88976807	16q24	yes		AML			Dom	T
CBFB	core-binding factor, beta subunit	865	16:67029409-67098733	16q22	yes		AML			Dom	T
CBL	Cas-Br-M (murine) ecotropic retroviral transforming	867	11:119206418-119299781	11q23.3	yes		AML, JMML, MDS			Dom, Rec	T, Mis, S, O
CBLB	Cas-Br-M (murine) ecotropic retroviral transforming sequence b	868	3:105658970-105867577	3q13.11	yes		AML			Rec	Mis, S
CBLC	Cas-Br-M (murine) ecotropic retroviral transforming sequence c	23624	19:44777932-44800443	19q13.2	yes		AML			Rec	M
CCDC6	coiled-coil domain containing 6	8030	10:59792917-59906424	10q21	yes		papillary thyroid, CML, NSCLC			Dom	T
CCNB1IP1	cyclin B1 interacting protein 1, E3 ubiquitin protein ligase	57820	14:20311550-20316523	14q11.2	yes		leiomyoma			Dom	T
CCND1	cyclin D1	595	11:69641314-69651282	11q13	yes		CLL, B-ALL, breast			Dom	T
CCND2	cyclin D2	894	12:4274041-4300009	12p13	yes		NHL,CLL			Dom	T
CCND3	cyclin D3	896	6:41935940-41941649	6p21	yes		MM			Dom	T
CCNE1	cyclin E1	898	19:29812556-29823777	19q12	yes		serous ovarian			Dom	A
CD274	CD274 molecule	29126	9:5456114-5467862	9p24	yes		PMBL, Hodgkin lymphoma			Dom	T
CD74	CD74 molecule, major histocompatibility complex, class II invariant chain	972	5:150402584-150412749	5q32	yes		NSCLC			Dom	T
CD79A	CD79a molecule, immunoglobulin-associated alpha	973	19:41877305-41880980	19q13.2	yes		DLBCL, WM			Dom	S
CD79B	CD79b molecule, immunoglobulin-associated beta	974	17:63929226-63932261	17q23	yes		DLBCL, WM			Dom	Mis, S
CDC73	cell division cycle 73	79577	1:193122201-193250712	1q21-q31	yes	yes	parathyroid adenoma	parathyroid adenoma, multiple ossifying jaw fibroma	hyperparathyroidism-jaw tumour syndrome	Rec	Mis, N, F
CDH1	cadherin 1, type 1, E-cadherin (epithelial) (ECAD)	999	16:68737416-68833499	16q22.1	yes	yes	lobular breast, gastric	gastric	familial gastric carcinoma	Rec	Mis, N, F, S
CDH11	cadherin 11, type 2, OB-cadherin (osteoblast)	1009	16:64947603-65004869	16q22.1	yes		aneurysmal bone cyst			Dom	T
CDK12	cyclin-dependent kinase 12	51755	17:39462072-39531316	17q12	yes		serous ovarian			Rec	Mis, N, F
CDK4	cyclin-dependent kinase 4	1019	12:57748525-57751717	12q14		yes		melanoma	familial malignant melanoma	Dom	Mis
CDK6	cyclin-dependent kinase 6	1021	7:92615140-92833323	7q21-q22	yes		ALL			Dom	T
CDKN1B	cyclin-dependent kinase inhibitor 1B (p27, Kip1)	1027	12:12717840-12718946	12p13.1-p12	yes	yes	breast, small intestine neuroendocrine tumours	pituitary, parathyroid	multiple endocrine neoplasia type IV	Rec	F
CDKN2A	cyclin-dependent kinase inhibitor 2A (p16(INK4a)) gene	1029	9:21968229-21974827	9p21	yes	yes	melanoma, multiple other tumour types	melanoma, pancreatic	familial malignant melanoma	Rec	D, Mis, N, F, S
CDKN2A(p14)	cyclin-dependent kinase inhibitor 2A--  p14ARF protein	1029	9:21957751-21984490	9p21	yes	yes	melanoma, multiple other tumour types	melanoma, pancreatic	familial malignant melanoma	Rec	D, S
CDKN2C	cyclin-dependent kinase inhibitor 2C (p18, inhibits CDK4)	1031	1:50970369-50974270	1p32	yes		glioma, MM			Rec	D
CDX2	caudal type homeo box transcription factor 2	1045	13:27963115-27969006	13q12.3	yes		AML			Dom	T
CEBPA	CCAAT/enhancer binding protein (C/EBP), alpha	1050	19:33301338-33302414	19q13.1	yes		AML, MDS			Dom	Mis, N, F
CEP89	centrosomal protein 89kDa	84902	19:32879162-32971874	19q13.11	yes		Spitzoid tumour			Dom	T
CHCHD7	coiled-coil-helix-coiled-coil-helix domain containing 7	79145	8:56214614-56217435	8q11.2	yes		salivary adenoma			Dom	T
CHEK2	CHK2 checkpoint homolog (S. pombe)	11200	22:28687897-28734721	22q12.1		yes		breast	familial breast cancer	Rec	F
CHIC2	cysteine-rich hydrophobic domain 2	26511	4:54010095-54064300	4q11-q12	yes		AML			Dom	T
CHN1	chimerin (chimaerin) 1	1123	2:174800116-175004912	2q31-q32.1	yes		extraskeletal myxoid chondrosarcoma			Dom	T
CIC	capicua homolog	23152	19:42284705-42295191	19q13.2	yes		oligodendroglioma, soft tissue sarcoma			Rec	Mis, F, S,T
CIITA	class II, major histocompatibility complex, transactivator	4261	16:10877332-10923304	16p13	yes		PMBL, Hodgkin lymphoma			Dom	T
CLIP1	CAP-GLY domain containing linker protein 1	6249	12:122272875-122380452	12q24.3	yes		Spitzoid tumour			Dom	T
CLP1	cleavage and polyadenylation factor I subunit 1	10978	11:57659477-57661436	11q12	yes		AML			Dom	T
CLTC	clathrin, heavy polypeptide (Hc)	1213	17:59620133-59693853	17q11-qter	yes		ALCL, renal			Dom	T
CLTCL1	clathrin, heavy polypeptide-like 1	8218	22:19180219-19291641	22q11.21	yes		ALCL			Dom	T
CNBP	CCHC-type zinc finger, nucleic acid binding protein	7555	3:129170453-129171757	3q21	yes		aneurysmal bone cyst			Dom	T
CNOT3	CCR4-NOT transcription complex subunit 3	4849	19:54142979-54155407	19q13.4	yes		T-ALL			Rec	Mis, N, F
CNTRL	centriolin	11064	9:121088328-121177187	9q33.2	yes		MPN, NHL			Dom	T
COL1A1	collagen, type I, alpha 1	1277	17:50185502-50201513	17q21.31-q22	yes		DFSP, aneurysmal bone cyst			Dom	T
COL2A1	collagen, type II, alpha 1	1280	12:47973407-48004321	12q13.11	yes		chondrosarcoma, enchondroma			Rec	F, Mis, N, T
COX6C	cytochrome c oxidase subunit VIc	1345	8:99878148-99892021	8q22-q23	yes		uterine leiomyoma			Dom	T
CREB1	cAMP responsive element binding protein 1	1385	2:207555637-207597059	2q34	yes		clear cell sarcoma, angiomatoid fibrous histiocytoma			Dom	T
CREB3L1	cAMP responsive element binding protein 3-like 1	90993	11:46278112-46320746	11p11.2	yes		myxofibrosarcoma			Dom	T
CREB3L2	cAMP responsive element binding protein 3-like 2	64764	7:137880476-138001705	7q34	yes		fibromyxoid sarcoma			Dom	T
CREBBP	CREB binding protein (CBP)	1387	16:3727718-3879916	16p13.3	yes		ALL, AML, DLBCL, B-NHL			Dom/Rec	T, N, F, Mis, O
CRLF2	cytokine receptor-like factor 2	64109	X,Y:1196780-1212634	Xp22.3; Yp11.3	yes		B-ALL, Downs associated ALL			Dom	Mis, T
CRTC1	CREB regulated transcription coactivator 1	23373	19:18683703-18777382	19p13.11	yes		salivary gland mucoepidermoid			Dom	T
CRTC3	CREB regulated transcription coactivator 3	64784	15:90530072-90642140	15q26.1	yes		salivary gland mucoepidermoid			Dom	T
CSF3R	colony stimulating factor 3 receptor (granulocyte)	1441	1:36466357-36479496	1p35-p34.4	yes		aCML, CNL,  leukaemia lymphoma and MDS associated with severe congenital neutropenia, CMML, de novo AML, MDS			Dom	N, Mis, S, O
CTNNB1	catenin (cadherin-associated protein), beta 1	1499	3:41224069-41239342	3p22-p21.3	yes		colorectal, ovarian,  hepatoblastoma, pleomorphic salivary gland adenoma, other tumour types			Dom	Mis, O, T
CUX1	cut-like homeobox 1	1523	7:101817640-102249042	7q22.1	yes		endometrial, melanoma, colorectal, AML, MDS, other tumour types			Rec	N,F,S,Mis,O,T
CYLD	familial cylindromatosis gene	1540	16:50749699-50796508	16q12-q13	yes	yes	cylindroma	cylindroma	familial cylindromatosis	Rec	Mis, N, F, S
DAXX	death-domain associated protein	1616	6:33318743-33321925	6p21.3	yes		pancreatic neuroendocrine tumour, paediatric glioblastoma			Rec	Mis, F, N
DCTN1	dynactin 1	1639	2:74361499-74380037	2p13	yes		inflammatory myofibroblastic tumour, Spitzoid tumour			Dom	T
DDB2	damage-specific DNA binding protein 2	1643	11:47215137-47238849	11p12		yes		skin basal cell, skin squamous cell, melanoma	xeroderma pigmentosum (E)	Rec	Mis, N
DDIT3	DNA-damage-inducible transcript 3	1649	12:57516809-57517406	12q13.1-q13.2	yes		liposarcoma			Dom	T
DDX10	DEAD (Asp-Glu-Ala-Asp) box polypeptide 10	1662	11:108665154-108940423	11q22-q23	yes		AML*			Dom	T
DDX5	DEAD (Asp-Glu-Ala-Asp) box polypeptide 5	1655	17:64499923-64506119	17q21	yes		prostate			Dom	T
DDX6	DEAD (Asp-Glu-Ala-Asp) box polypeptide 6	1656	11:118754712-118786218	11q23.3	yes		B-NHL			Dom	T
DEK	DEK oncogene (DNA binding)	7913	6:18225719-18263987	6p23	yes		AML			Dom	T
DICER1	dicer 1, ribonuclease type III	23405	14:95090498-95133458	14q32.13	yes	yes	sex cord-stromal tumour, TGCT, embryonal rhabdomyosarcoma, pleuropulmonary blastoma, pituitary blastoma, Wilms tumour, thyroid cancer, other tumour types	pleuropulmonary blastoma	familial pleuropulmonary blastoma or DICER1 syndrome	Rec	Mis, F, N
DNM2	dynamin 2	1785	19:10718243-10831047	19p13.2	yes		T-ALL			Rec	F, N, S, Mis, O
DNMT3A	DNA (cytosine-5-)-methyltransferase 3 alpha	1788	2:25234279-25313984	2p23	yes		AML			Rec	Mis, F, N, S
DUX4L1	double homeobox 4 like 1	22947	4:190084229-190085686	4q35	yes		soft tissue sarcoma			Dom	T
EBF1	early B-cell factor 1	1879	5:158699111-159099478	5q34	yes		lipoma			Dom	T
ECT2L	epithelial cell transforming sequence 2 oncogene-like	345930	6:138813275-138902627	6q24.1	yes		ETP ALL			Rec	N, S, Mis
EGFR	epidermal growth factor receptor (erythroblastic leukemia viral (v-erb-b) oncogene homolog, avian)	1956	7:55019278-55205617	7p12.3-p12.1	yes	yes	glioma, NSCLC	NSCLC	familial lung cancer	Dom	A, O, Mis
EIF3E	eukaryotic translation initiation factor 3, subunit E	3646	8:108201885-108248702	8q22-q23	yes		colorectal			Dom	T
EIF4A2	eukaryotic translation initiation factor 4A, isoform 2	1974	3:186783611-186789269	3q27.3	yes		NHL			Dom	T
ELF4	E74-like factor 4 (ets domain transcription factor)	2000	X:130066721-130081330	Xq26	yes		AML			Dom	T
ELK4	ELK4, ETS-domain protein (SRF accessory protein 1)	2005	1:205616546-205623882	1q32	yes		prostate			Dom	T
ELL	ELL gene (11-19 lysine-rich leukemia gene)	8178	19:18444752-18522055	19p13.1	yes		AL			Dom	T
ELN	elastin	2006	7:74028188-74068700	7q11.23	yes		B-ALL			Dom	T
EML4	echinoderm microtubule associated protein like 4	27436	2:42169613-42330208	2p21	yes		NSCLC			Dom	T
EP300	300 kd E1A-Binding protein gene	2033	22:41093005-41178956	22q13	yes		colorectal, breast, pancreatic, AML, ALL, DLBCL			Rec	T,  N, F, Mis, O
EPS15	epidermal growth factor receptor pathway substrate 15 (AF1p)	2060	1:51356700-51519231	1p32	yes		ALL			Dom	T
ERBB2	v-erb-b2 erythroblastic leukemia viral oncogene homolog 2, neuro/glioblastoma derived oncogene homolog (avian)	2064	17:39700239-39728044	17q21.1	yes		breast, ovarian, other tumour types, NSCLC, gastric			Dom	A, Mis, O
ERBB3	erb-b2 receptor tyrosine kinase 3	2065	12:56080301-56102055	12q13	yes		colon, gastric, head and neck, bladder, skin			Dom	Mis, N
ERC1	ELKS/RAB6-interacting/CAST family member 1	23085	12:1027904-1490230	12p13.3	yes		papillary thyroid, Spitzoid tumour			Dom	T
ERCC2	excision repair cross-complementing rodent repair deficiency, complementation group 2 (xeroderma pigmentosum D)	2068	19:45351629-45370237	19q13.2-q13.3		yes		skin basal cell, skin squamous cell, melanoma	xeroderma pigmentosum (D)	Rec	Mis, N, F, S
ERCC3	excision repair cross-complementing rodent repair deficiency, complementation group 3 (xeroderma pigmentosum group B complementing)	2071	2:127257596-127294081	2q21		yes		skin basal cell, skin squamous cell, melanoma	xeroderma pigmentosum (B)	Rec	Mis, S
ERCC4	excision repair cross-complementing rodent repair deficiency, complementation group 4	2072	16:13920166-13948347	16p13.3-p13.13		yes		skin basal cell, skin squamous cell, melanoma	xeroderma pigmentosum (F)	Rec	Mis, N, F
ERCC5	excision repair cross-complementing rodent repair deficiency, complementation group 5 (xeroderma pigmentosum, complementation group G (Cockayne syndrome))	2073	13:102846267-102875903	13q33		yes		skin basal cell, skin squamous cell, melanoma	xeroderma pigmentosum (G)	Rec	Mis, N, F
ERG	v-ets erythroblastosis virus E26 oncogene like (avian)	2078	21:38383403-38575700	21q22.3	yes		Ewing sarcoma, prostate, AML			Dom	T
ESR1	estrogen receptor 1	2099	6:151807913-152098966	6q25.1	yes		breast			Dom	Mis
ETNK1	ethanolamine kinase 1	55500	12:22625164-22684954	12p12.1	yes		aCML, CMML, SM-AHD, HES			Dom	Mis
ETV1	ets variant gene 1	2115	7:13895866-13989052	7p22	yes		Ewing sarcoma, prostate			Dom	T
ETV4	ets variant gene 4 (E1A enhancer binding protein, E1AF)	2118	17:43528519-43545617	17q21	yes		Ewing sarcoma, prostate carcinoma			Dom	T
ETV5	ets variant gene 5	2119	3:186048639-186105868	3q28	yes		prostate			Dom	T
ETV6	ets variant gene 6 (TEL oncogene)	2120	12:11650128-11891046	12p13	yes		congenital fibrosarcoma, multiple different leukaemia and lymphoma tumour types including ALL, secretory breast, MDS			Dom	T
EWSR1	Ewing sarcoma breakpoint region 1 (EWS)	2130	22:29268337-29300161	22q12	yes		Ewing sarcoma, desmoplastic small round cell tumour , ALL, clear cell sarcoma, sarcoma, myoepithelioma, mesothelioma			Dom	T
EXT1	multiple exostoses type 1 gene	2131	8:117799712-118111046	8q24.11-q24.13		yes		exostoses, osteosarcoma	multiple exostoses type 1	Rec	Mis, N, F, S
EXT2	multiple exostoses type 2 gene	2132	11:44107713-44244287	11p12-p11		yes		exostoses, osteosarcoma	multiple exostoses type 2	Rec	Mis, N, F, S
EZH2	enhancer of zeste homolog 2	2146	7:148807646-148847298	7q35-q36	yes		DLBCL			Rec?	Mis
EZR	ezrin	7430	6:158766914-158818093	6q25.3	yes		NSCLC			Dom	T
FAM131B	family with sequence similarity 131, member B	9715	7:143356550-143360093	7q34	yes		pilocytic astrocytoma			Dom	T
FAM46C	family with sequence similarity 46, member C	54855	1:117622869-117624044	1p12	yes		MM			Rec	Mis, F, O
FANCA	Fanconi anemia, complementation group A	2175	16:89738601-89816615	16q24.3		yes		AML, leukaemia	Fanconi anaemia A	Rec	D, Mis, N, F, S
FANCC	Fanconi anemia, complementation group C	2176	9:95101707-95249291	9q22.3		yes		AML, leukaemia	Fanconi anaemia C	Rec	D, Mis, N, F, S
FANCD2	Fanconi anemia, complementation group D2	2177	3:10028658-10098950	3p26		yes		AML, leukaemia	Fanconi anaemia D2	Rec	D, Mis, N, F
FANCE	Fanconi anemia, complementation group E	2178	6:35452546-35466345	6p21-p22		yes		AML, leukaemia	Fanconi anaemia E	Rec	N, F, S
FANCF	Fanconi anemia, complementation group F	2188	11:22624686-22625810	11p15		yes		AML, leukaemia	Fanconi anaemia F	Rec	N, F
FANCG	Fanconi anemia, complementation group G	2189	9:35074108-35079524	9p13		yes		AML, leukaemia	Fanconi anaemia G	Rec	Mis, N, F, S
FAS	Fas cell surface death receptor	355	10:88990877-89014450	10q24.1	yes		TGCT, nasal NK/T lymphoma, skin squamous cell carcinoma-burn scar related			Rec	Mis
FBXO11	F-box protein 11	80204	2:47808118-47839749	2p16.3	yes		DLBCL			Rec	Mis, F, D
FBXW7	F-box and WD-40 domain protein 7 (archipelago homolog, Drosophila)	55294	4:152322881-152411803	4q31.3	yes		colorectal, endometrial, T-ALL			Rec	Mis, N, D, F
FCGR2B	Fc fragment of IgG, low affinity IIb, receptor for (CD32)	2213	1:161663242-161677553	1q23	yes		ALL			Dom	T
FCRL4	Fc receptor-like 4	83417	1:157575524-157597944	1q21	yes		B-NHL			Dom	T
FEV	FEV protein - (HSRNAFEV)	54738	2:218981667-218985075	2q36	yes		Ewing sarcoma			Dom	T
FGFR1	fibroblast growth factor receptor 1	2260	8:38413628-38457446	8p11.2-p11.1	yes		MPN, NHL, salivary adenoma			Dom	T
FGFR1OP	FGFR1 oncogene partner (FOP)	11116	6:166999414-167039979	6q27	yes		MPN, NHL			Dom	T
FGFR2	fibroblast growth factor receptor 2	2263	10:121479857-121593817	10q26	yes		gastric, NSCLC, endometrial			Dom	Mis
FGFR3	fibroblast growth factor receptor 3	2261	4:1793935-1807262	4p16.3	yes		bladder, MM, T-cell lymphoma			Dom	Mis, T
FGFR4	fibroblast growth factor receptor 4	2264	5:177089603-177097676	5q35.2	yes		rhabdomyosarcoma			Dom	Mis
FH	fumarate hydratase	2271	1:241497828-241519722	1q42.1		yes		leiomyomatosis, renal	hereditary leiomyomatosis and renal cell cancer	Rec	Mis, N, F
FHIT	fragile histidine triad gene	2272	3:59752226-60536962	3p14.2	yes		pleomorphic salivary gland adenoma			Dom	T
FIP1L1	FIP1 like 1 (S. cerevisiae)	81608	4:53377840-53459450	4q12	yes		idiopathic hypereosinophilic syndrome			Dom	T
FLCN	folliculin	201163	17:17213655-17228137	17p11.2		yes		renal, fibrofolliculomas, trichodiscomas	Birt-Hogg-Dube syndrome	Rec?	Mis. N, F
FLI1	Friend leukemia virus integration 1	2313	11:128694259-128810988	11q24	yes		Ewing sarcoma			Dom	T
FLT3	fms-related tyrosine kinase 3	2322	13:28004052-28100510	13q12	yes		AML, ALL			Dom	Mis, O
FLT4	fms-related tyrosine kinase 4	2324	5:180608281-180649545	5q35.3	yes		soft tissue sarcoma				
FNBP1	formin binding protein 1 (FBP17)	23048	9:93562241-93674930	9q23	yes		AML			Dom	T
FOXA1	forkhead box A1	3169	14:37591365-37594972	14q12-q13	yes		breast, prostate			Dom	Mis, F
FOXL2	forkhead box L2	668	3:138945592-138946722	3q23	yes		granulosa-cell tumour of the ovary			Dom	Mis
FOXO1	forkhead box O1	2308	13:40555680-40666212	13q14.1	yes		alveolar rhabdomyosarcoma			Dom	T
FOXO3	forkhead box O3	2309	6:108561209-108664855	6q21	yes		AL			Dom	T
FOXO4	forkhead box O4	4303	X:71096529-71102084	Xq13.1	yes		AL			Dom	T
FOXO4	forkhead box O4	4303	X:71096529-71102084	Xq13.1	yes		soft tissue sarcoma			Dom	T
FOXP1	forkhead box P1	27086	3:70959247-71198381	3p14.1	yes		ALL			Dom	T
FSTL3	follistatin-like 3 (secreted glycoprotein)	10272	19:676425-681709	19p13	yes		B-CLL			Dom	T
FUBP1	far upstream element (FUSE) binding protein 1	8880	1:77949146-77979004	1p13.1	yes		oligodendroglioma			Rec	F, N
FUS	fusion, derived from t(12;16) malignant liposarcoma	2521	16:31180215-31191438	16p11.2	yes		liposarcoma, AML, Ewing sarcoma, angiomatoid fibrous histiocytoma, fibromyxoid sarcoma			Dom	T
GAS7	growth arrest-specific 7	8522	17:9917228-10198390	17p	yes		AML*			Dom	T
GATA1	GATA binding protein 1 (globin transcription factor 1)	2623	X:48791110-48794164	Xp11.23	yes		megakaryoblastic leukaemia of Downs syndrome			Dom	Mis, F
GATA2	GATA binding protein 2	2624	3:128481019-128487031	3q21.3	yes		AML (CML blast transformation)			Dom	Mis
GATA3	GATA binding protein 3	2625	10:8055656-8074023	10p15	yes		breast			Rec	F, N, S
GMPS	guanine monphosphate synthetase	8833	3:155870871-155937692	3q24	yes		AML			Dom	T
GNA11	guanine nucleotide binding protein (G protein), alpha 11 (Gq class)	2767	19:3094652-3121179	19p13.3	yes		uveal melanoma			Dom	Mis
GNAQ	guanine nucleotide binding protein (G protein), q polypeptide	2776	9:77721323-78031235	9q21	yes		uveal melanoma			Dom	Mis
GNAS	guanine nucleotide binding protein (G protein), alpha stimulating activity polypeptide 1	2778	20:58891727-58910829	20q13.2	yes		pituitary adenoma			Dom	Mis
GOLGA5	golgi autoantigen, golgin subfamily a, 5  (PTC5)	9950	14:92797439-92839447	14q	yes		papillary thyroid, Spitzoid tumour			Dom	T
GOPC	golgi associated PDZ and coiled-coil motif containing	57120	6:117563254-117602288	6q21	yes		glioblastoma			Dom	O
GPC3	glypican 3	2719	X:133536124-133985449	Xq26.1		yes		Wilms tumour	Simpson-Golabi-Behmel syndrome	Rec/X	T, D, Mis, N, F, S
GPHN	gephyrin (GPH)	10243	14:66508529-67180938	14q24	yes		AL			Dom	T
GRIN2A	glutamate receptor, ionotropic, N-methyl D-aspartate 2A	2903	16:9763149-10180411	16p13.2	yes		melanoma, colorectal carcinoma, gastric carcinoma, lung carcinoma			Rec	Mis, N, F, O
H3F3A	H3 histone, family 3A	3020	1:226064352-226071479	1q42.12	yes		glioma			Dom	Mis
H3F3B	H3 histone, family 3B (H3.3B)	3021	17:75778595-75779174	17q25.1	yes		chondroblastoma			Dom	Mis
HERPUD1	homocysteine-inducible, endoplasmic reticulum stress-inducible, ubiquitin-like domain member 1	9709	16:56932245-56943290	16q12.2-q13	yes		prostate			Dom	T
HEY1	hairy/enhancer-of-split related with YRPW motif 1	23462	8:79765188-79767663	8q21	yes		mesenchymal chondrosarcoma			Dom	T
HIP1	huntingtin interacting protein 1	3092	7:75538172-75738920	7q11.23	yes		CMML, NSCLC			Dom	T
HIST1H3B	histone cluster 1, H3b	8358	6:26031650-26032060	6p22.1	yes		glioma			Dom	Mis
HIST1H4I	histone 1, H4i (H4FM)	8294	6:27107089-27107660	6p21.3	yes		NHL			Dom	T
HLA-A	major histocompatibility complex, class I, A	3105	6:29942554-29945455	6p21.3	yes		Spitzoid tumour			Dom	T
HLF	hepatic leukemia factor	3131	17:55265486-55320880	17q22	yes		ALL			Dom	T
HMGA1	high mobility group AT-hook 1	3159	6:34240781-34244884	6p21	yes		microfollicular thyroid adenoma, various benign mesenchymal tumours			Dom	T
HMGA2	high mobility group AT-hook 2 (HMGIC)	8091	12:65825271-65963292	12q15	yes		lipoma, leiomyoma, pleomorphic salivary gland adenoma			Dom	T
HMGN2P46	high mobility group nucleosomal binding domain 2 pseudogene 46	283651	15:-	15q21.1	yes		prostate			Dom	T
HNF1A	HNF1 homeobox A	6927	12:120978769-121001192	12q24.2	yes	yes	hepatic adenoma, hepatocellular	hepatic adenoma, hepatocellular carcinoma	familial hepatic adenoma	Rec	Mis, F
HNRNPA2B1	heterogeneous nuclear ribonucleoprotein A2/B1	3181	7:26190125-26200577	7p15	yes		prostate			Dom	T
HOOK3	hook homolog 3	84376	8:42897132-43018498	8p11.21	yes		papillary thyroid			Dom	T
HOXA11	homeo box A11	3207	7:27182796-27185144	7p15-p14.2	yes		CML			Dom	T
HOXA13	homeo box A13	3209	7:27198198-27200077	7p15-p14.2	yes		AML			Dom	T
HOXA9	homeo box A9	3205	7:27163603-27165457	7p15-p14.2	yes		AML*			Dom	T
HOXC11	homeo box C11	3227	12:53973243-53975414	12q13.3	yes		AML			Dom	T
HOXC13	homeo box C13	3229	12:53938908-53945257	12q13.3	yes		AML			Dom	T
HOXD11	homeo box D11	3237	2:176107357-176109143	2q31-q32	yes		AML			Dom	T
HOXD13	homeo box D13	3239	2:176092916-176094731	2q31-q32	yes		AML*			Dom	T
HRAS	v-Ha-ras Harvey rat sarcoma viral oncogene homolog	3265	11:532636-534322	11p15.5	yes	yes	infrequent sarcomas, rare other tumour types	rhabdomyosarcoma, ganglioneuroblastoma, bladder	Costello syndrome	Dom	Mis
HSP90AA1	heat shock protein 90kDa alpha (cytosolic), class A member 1	3320	14:102081712-102139404	14q32.33	yes		NHL			Dom	T
HSP90AB1	heat shock protein 90kDa alpha (cytosolic), class B member 1	3326	6:44248630-44253598	6p12	yes		NHL			Dom	T
IDH1	isocitrate dehydrogenase 1 (NADP+), soluble	3417	2:208237079-208251551	2q33.3	yes		glioblastoma			Dom	Mis
IDH2	isocitrate dehydrogenase 2 (NADP+), mitochondrial	3418	15:90084266-90102390	15q26.1	yes		glioblastoma			Dom	Mis
IGH	immunoglobulin heavy locus	3492	14:-	14q32.33	yes		MM, Burkitt lymphoma, NHL, CLL, B-ALL, MALT, MLCLS			Dom	T
IGK	immunoglobulin kappa locus	50802	2:-	2p12	yes		Burkitt lymphoma, B-NHL			Dom	T
IGL	immunoglobulin lambda locus	3535	22:-	22q11.2	yes		Burkitt lymphoma			Dom	T
IKBKB	inhibitor of kappa light polypeptide gene enhancer in B-cells, kinase beta	3551	8:42272100-42330979	8p11.2	yes		SMZL			Dom	Mis
IKZF1	IKAROS family zinc finger 1	10320	7:50319062-50400628	7p12.2	yes		ALL, DLBCL			Rec,Dom	D,T
IL2	interleukin 2	3558	4:122451752-122456440	4q26-q27	yes		intestinal T-cell lymphoma			Dom	T
IL21R	interleukin 21 receptor	50615	16:27430073-27449284	16p11	yes		NHL			Dom	T
IL6ST	interleukin 6 signal transducer (gp130, oncostatin M receptor)	3572	5:55941082-55976278	5q11	yes		hepatocellular carcinoma			Dom	O
IL7R	interleukin 7 receptor	3575	5:35856978-35876486	5p13	yes		ALL, ETP ALL			Dom	Mis, O
IRF4	interferon regulatory factor 4	3662	6:393154-407599	6p25-p23	yes		MM			Dom	T
ITK	IL2-inducible T-cell kinase	3702	5:157180978-157252678	5q31-q32	yes		peripheral T-cell lymphoma			Dom	T
JAK1	Janus kinase 1	3716	1:64834562-64886264	1p32.3-p31.3	yes		ALL			Dom	Mis
JAK2	Janus kinase 2	3717	9:5021988-5126791	9p24	yes		ALL, AML, MPN,  CML			Dom	T, Mis, O
JAK3	Janus kinase 3	3718	19:17826743-17844417	19p13.1	yes		acute megakaryocytic leukaemia, ETP ALL			Dom	Mis
JAZF1	juxtaposed with another zinc finger gene 1	221895	7:27832800-28180577	7p15.2-p15.1	yes		endometrial stromal tumour			Dom	T
JUN	jun oncogene	3725	1:58782075-58783070	1p32-p31	yes		sarcoma			Dom	A
KAT6A	K(lysine) acetyltransferase 6A	7994	8:-	8p11	yes		AML			Dom	T
KAT6B	K(lysine) acetyltransferase 6B	23522	10:74842858-75031046	10q22.2	yes		AML			Dom	T
KCNJ5	potassium inwardly-rectifying channel; subfamily J; member 5	3762	11:128911274-128916731	11q24	yes		adrenal adenoma			Dom	Mis
KDM5A	lysine (K)-specific demethylase 5A, JARID1A	5927	12:285456-389091	12p11	yes		AML			Dom	T
KDM5C	lysine (K)-specific demethylase 5C (JARID1C)	8242	X:53192967-53224889	Xp11.22-p11.21	yes		clear cell renal carcinoma			Rec	N, F, S, Mis
KDM6A	lysine (K)-specific demethylase 6A, UTX	7403	X:44873552-45111411	Xp11.2	yes		renal cell carcinoma, bladder carcinoma, oesophageal SCC, MM, medulloblastoma, T-ALL, other tumour types			Rec	D, N, F, S
KDR	vascular endothelial growth factor receptor 2	3791	4:55079941-55125293	4q11-q12	yes		NSCLC, angiosarcoma			Dom	Mis
KDSR	3-ketodihydrosphingosine reductase	2531	18:63331782-63367118	18q21.3	yes		B-NHL			Dom	T
KIAA1549	KIAA1549	57670	7:138837906-138919418	7q34	yes		pilocytic astrocytoma			Dom	T
KIAA1598	KIAA1598	57698	10:116886555-117005079	10q25.3	yes		Spitzoid tumour			Dom	T
KIF5B	kinesin family member 5B	3799	10:32009010-32055973	10p11.22	yes		NSCLC, Spitzoid tumour			Dom	T
KIT	v-kit Hardy-Zuckerman 4 feline sarcoma viral oncogene homolog	3815	4:54658015-54738557	4q12	yes	yes	GIST, AML, TGCT, mastocytosis, mucosal melanoma	GIST, epithelioma	familial gastrointestinal stromal tumour	Dom	Mis, O
KLF4	Kruppel-like factor 4	9314	9:107485751-107489172	9q31	yes		meningioma			Dom	Mis
KLF6	Kruppel-like factor 6	1316	10:3779539-3785014	10p15	yes		prostate, glioma			Rec	Mis, N
KLK2	kallikrein-related peptidase 2	3817	19:50873474-50878559	19q13.41	yes		prostate			Dom	T
KMT2A	lysine (K)-specific methyltransferase 2A	4297	11:118436513-118522172	11q23	yes		AML, ALL			Dom	T, O
KMT2C	lysine (K)-specific methyltransferase 2C	58508	7:152136832-152435786	7q36.1	yes		medulloblastoma			Rec	N
KMT2D	lysine (K)-specific methyltransferase 2D	8085	12:49021780-49055324	12q13.12	yes		medulloblastoma, renal			Rec	N, F, Mis
KRAS	v-Ki-ras2 Kirsten rat sarcoma 2 viral oncogene homolog	3845	12:25209795-25245384	12p12.1	yes		pancreatic, colorectal, lung, thyroid, AML, other tumour types			Dom	Mis
KTN1	kinectin 1 (kinesin receptor)	3895	14:55612050-55680691	14q22.1	yes		papillary thyroid			Dom	T
LASP1	LIM and SH3 protein 1	3927	17:38870190-38918778	17q11-q21.3	yes		AML			Dom	T
LCK	lymphocyte-specific protein tyrosine kinase	3932	1:32274330-32285716	1p35-p34.3	yes		T-ALL			Dom	T
LCP1	lymphocyte cytosolic protein 1 (L-plastin)	3936	13:46127591-46159662	13q14.1-q14.3	yes		NHL			Dom	T
LHFP	lipoma HMGIC fusion partner	10186	13:39343936-39601216	13q12	yes		lipoma			Dom	T
LIFR	leukemia inhibitory factor receptor	3977	5:38481595-38530647	5p13-p12	yes		salivary adenoma			Dom	T
LMNA	lamin A/C	4000	1:156114919-156139106	1q22	yes		Spitzoid tumour			Dom	T
LMO1	LIM domain only 1 (rhombotin 1) (RBTN1)	4004	11:8224616-8268634	11p15	yes	yes	T-ALL, neuroblastoma	neuroblastoma		Dom	T, A
LMO2	LIM domain only 2 (rhombotin-like 1) (RBTN2)	4005	11:33859356-33869386	11p13	yes		T-ALL			Dom	T
LPP	LIM domain containing preferred translocation partner in lipoma	4026	3:188406122-188874480	3q28	yes		lipoma, leukaemia			Dom	T
LRIG3	leucine-rich repeats and immunoglobulin-like domains 3	121227	12:58872572-58920235	12q14.1	yes		NSCLC			Dom	T
LSM14A	LSM14A, SCD6 homolog A (S. cerevisiae)	26065	19:34172643-34227388	19q13.11	yes		Spitzoid tumour			Dom	T
LYL1	lymphoblastic leukemia derived sequence 1	4066	19:13099319-13101171	19p13.2-p13.1	yes		T-ALL			Dom	T
MAF	v-maf musculoaponeurotic fibrosarcoma oncogene homolog	4094	16:79594460-79599902	16q22-q23	yes		MM			Dom	T
MAFB	v-maf musculoaponeurotic fibrosarcoma oncogene homolog B (avian)	9935	20:40687879-40688850	20q11.2-q13.1	yes		MM			Dom	T
MALAT1	metastasis associated lung adenocarcinoma transcript 1 ( lnc-RNA; non-protein coding)	378938	11:65502644-65502817	11q31.1	yes		renal cell carcinoma (childhood epithelioid), lung			Dom	T
MALT1	mucosa associated lymphoid tissue lymphoma translocation gene 1	10892	18:58671645-58747843	18q21	yes		MALT			Dom	T
MAML2	mastermind-like 2 (Drosophila)	84441	11:95978948-96341895	11q22-q23	yes		salivary gland mucoepidermoid			Dom	T
MAP2K1	mitogen-activated protein kinase kinase 1	5604	15:66387348-66490615	15q22.1-q22.33	yes		NSCLC, melanoma, colorectal			Dom	Mis
MAP2K2	mitogen-activated protein kinase kinase 2	5605	19:4090598-4123875	19p13.3	yes		NSCLC, melanoma			Dom	Mis
MAP2K4	mitogen-activated protein kinase kinase 4	6416	17:12020887-12141260	17p11.2	yes		pancreatic, breast, colorectal			Rec	D, Mis, N
MAP3K1	mitogen-activated protein kinase kinase kinase 1, E3 ubiquitin protein ligase	4214	5:56152434-56189507	5q11.2	yes		luminal A breast			Rec	N, F, Mis, O, S
MAP3K13	mitogen-activated protein kinase kinase kinase 13	9175	3:185428582-185482456	3q27	yes		breast			Rec	F
MAX	Myc associated factor X	4149	14:65076476-65102339	14q23	yes	yes	pheochromocytoma, endometrioid carcinoma, colon carcinoma	pheochromocytoma		Rec	Mis, N, F
MDM2	Mdm2 p53 binding protein homolog	4193	12:68808478-68839849	12q15	yes		sarcoma, glioma, colorectal, other tumour types			Dom	A
MDM4	Mdm4 p53 binding protein homolog	4194	1:204525519-204549682	1q32	yes		glioblastoma, bladder, retinoblastoma			Dom	A
MDS2	myelodysplastic syndrome 2	259283	1:23629556-23640550	1p36	yes		MDS			Dom	T
MECOM	MDS1 and EVI1 complex locus	2122	3:169084909-169131477	3q26.2	yes		AML, CML, MDS			Dom	T
MED12	mediator complex subunit 12	9968	X:71118755-71142218	Xq13	yes		uterine leiomyoma			Dom	Mis, S
MEN1	multiple endocrine neoplasia type 1 gene	4221	11:64804334-64810109	11q13	yes	yes	parathyroid tumours, pancreatic neuroendocrine tumour	parathyroid adenoma, pituitary adenoma, pancreatic islet cell, carcinoid	multiple endocrine neoplasia type 1	Rec	D, Mis, N, F, S
MET	met proto-oncogene (hepatocyte growth factor receptor)	4233	7:116699085-116796124	7q31	yes		papillary renal, head-neck squamous cell	papillary renal	familial papillary renal cancer	Dom	Mis
MITF	microphthalmia-associated transcription factor	4286	3:69936723-69965248	3p14.1	yes		melanoma			Dom	A
MKL1	megakaryoblastic leukemia (translocation) 1	57591	22:40411390-40463227	22q13	yes		acute megakaryocytic leukaemia			Dom	T
MLF1	myeloid leukemia factor 1	4291	3:158571302-158605203	3q25.1	yes		AML			Dom	T
MLH1	E.coli MutL homolog gene	4292	3:36993548-37050653	3p21.3	yes	yes	colorectal, endometrial, ovarian, CNS tumours	colorectal, endometrial, ovarian, CNS	hereditary non-polyposis colorectal cancer, Turcot syndrome	Rec	D, Mis, N, F, S
MLLT1	myeloid/lymphoid or mixed-lineage leukemia (trithorax homolog, Drosophila); translocated to, 1 (ENL)	4298	19:6213042-6279784	19p13.3	yes		AL			Dom	T
MLLT10	myeloid/lymphoid or mixed-lineage leukemia (trithorax homolog, Drosophila); translocated to, 10 (AF10)	8028	10:21534646-21740235	10p12	yes		AL			Dom	T
MLLT11	myeloid/lymphoid or mixed-lineage leukemia (trithorax homolog, Drosophila); translocated to, 11	10962	1:151039702-151040970	1q21	yes		ALL			Dom	T
MLLT3	myeloid/lymphoid or mixed-lineage leukemia (trithorax homolog, Drosophila); translocated to, 3 (AF9)	4300	9:20346443-20622256	9p22	yes		ALL			Dom	T
MLLT4	myeloid/lymphoid or mixed-lineage leukemia (trithorax homolog, Drosophila); translocated to, 4 (AF6)	4301	6:167827134-167952263	6q27	yes		AL			Dom	T
MLLT6	myeloid/lymphoid or mixed-lineage leukemia (trithorax homolog, Drosophila); translocated to, 6 (AF17)	4302	17:36861887-36881852	17q21	yes		AL			Dom	T
MN1	meningioma (disrupted in balanced translocation) 1	4330	22:27750915-27800543	22q13	yes		AML, meningioma			Dom	T
MNX1	motor neuron and pancreas homeobox 1	3110	7:157005520-157010350	7q36	yes		AML			Dom	T
MPL	myeloproliferative leukaemia virus oncogene, thrombopoietin receptor	4352	1:43337849-43352772	1p34	yes	yes	MPN	MPN	familial essential thrombocythemia	Dom	Mis
MSH2	mutS homolog 2 (E. coli)	4436	2:47403192-47482949	2p22-p21	yes	yes	colorectal, endometrial, ovarian	colorectal, endometrial, ovarian	hereditary non-polyposis colorectal cancer	Rec	D, Mis, N, F, S
MSH6	mutS homolog 6 (E. coli)	2956	2:47783234-47806860	2p16	yes	yes	colorectal	colorectal, endometrial, ovarian	hereditary non-polyposis colorectal cancer	Rec	Mis, N, F, S
MSI2	musashi homolog 2 (Drosophila)	124540	17:57257049-57631832	17q23.2	yes		CML			Dom	T
MSN	moesin	4478	X:65667842-65739893	Xq11.2-q12	yes		ALCL			Dom	T
MTCP1	mature T-cell proliferation 1	4515	X:155061843-155064023	Xq28	yes		T cell prolymphocytic leukaemia			Dom	T
MUC1	mucin 1, transmembrane	4582	1:155186135-155192843	1q21	yes		B-NHL			Dom	T
MUTYH	mutY homolog (E. coli)	4595	1:45329306-45340254	1p34.3-1p32.1		yes		colorectal	adenomatous polyposis coli	Rec	Mis
MYB	v-myb myeloblastosis viral oncogene homolog	4602	6:135181514-135217980	6q22-23	yes		adenoid cystic carcinoma			Dom	T
MYC	v-myc myelocytomatosis viral oncogene homolog (avian)	4609	8:127738263-127740958	8q24.12-q24.13	yes		Burkitt lymphoma, amplified in other cancers, B-CLL			Dom	A, T
MYCL	v-myc avian myelocytomatosis viral oncogene lung carcinoma derived homolog	4610	1:39900814-39901434	1p34.2	yes		small cell lung carcinoma			Dom	A
MYCN	v-myc myelocytomatosis viral related oncogene, neuroblastoma derived (avian)	4613	2:15942065-15946097	2p24.1	yes		neuroblastoma			Dom	A
MYD88	myeloid differentiation primary response gene (88)	4615	3:38138662-38141286	3p22	yes		ABC-DLBCL			Dom	Mis
MYH11	myosin, heavy polypeptide 11, smooth muscle	4629	16:15708811-15838252	16p13.13-p13.12	yes		AML			Dom	T
MYH9	myosin, heavy polypeptide 9, non-muscle	4627	22:36282668-36349236	22q13.1	yes		ALCL			Dom	T
MYO5A	myosin VA (heavy chain 12, myoxin)	4644	15:52313696-52528806	15q21	yes		Spitzoid tumour			Dom	T
MYOD1	myogenic differentiation 1	4654	11:17719783-17721508	11p15.4	yes		embryonal rhabdomyosarcoma			Dom	Mis
NAB2	NGFI-A binding protein 2	4665	12:57089272-57094721	12q13.3	yes		solitary fibrous tumour, meningeal haemangiopericytoma			Dom	T
NACA	nascent-polypeptide-associated complex alpha polypeptide	4666	12:56712538-56724521	12q23-q24.1	yes		NHL			Dom	T
NBN	nibrin	4683	8:89935582-89984561	8q21		yes		NHL, glioma, medulloblastoma, rhabdomyosarcoma	Nijmegen breakage syndrome	Rec	Mis, N, F
NCKIPSD	NCK interacting protein with SH3 domain	51517	3:48674544-48685807	3p21	yes		ALL			Dom	T
NCOA1	nuclear receptor coactivator 1	8648	2:24658678-24768391	2p23	yes		alveolar rhabdomyosarcoma			Dom	T
NCOA2	nuclear receptor coactivator 2 (TIF2)	10499	8:70113632-70216745	8q13.1	yes		AML, chondrosarcoma, rhabdomyosarcoma			Dom	T
NCOA4	nuclear receptor coactivator 4 - PTC3 (ELE1)	8031	10:51579142-51586417	10q11.2	yes		papillary thyroid			Dom	T
NCOR1	nuclear receptor corepressor 1	9611	17:16032296-16194569	17p11.2	yes		breast			Rec	Mis, F, N, O
NDRG1	N-myc downstream regulated 1	10397	8:133238878-133284311	8q24.3	yes		prostate			Dom	T
NF1	neurofibromatosis type 1 gene	4763	17:31095310-31374155	17q12	yes	yes	neurofibroma, glioma	neurofibroma, glioma	neurofibromatosis type 1	Rec	D, Mis, N, F, S, O
NF2	neurofibromatosis type 2 gene	4771	22:29603999-29694802	22q12.2	yes	yes	meningioma, acoustic neuroma, renal	meningioma, acoustic neuroma	neurofibromatosis type 2	Rec	D, Mis, N, F, S, O
NFATC2	nuclear factor of activated T-cells, cytoplasmic, calcineurin-dependent 2	4773	20:51391396-51542499	20q13.2	yes		Ewing sarcoma			Dom	T
NFE2L2	nuclear factor (erythroid-derived 2)-like 2 (NRF2)	4780	2:177230785-177264576	2q31	yes		NSCLC, HNSCC			Dom	Mis
NFIB	nuclear factor I/B	4781	9:14088309-14313511	9p24.1	yes		adenoid cystic carcinoma, lipoma			Dom	T
NFKB2	nuclear factor of kappa light polypeptide gene enhancer in B-cells 2 (p49/p100)	4791	10:102395960-102402376	10q24	yes		B-NHL			Dom	T
NFKBIE	nuclear factor of kappa light polypeptide gene enhancer in B-cells inhibitor, epsilon	4794	6:44259219-44265763	6p21.1	yes		CLL			Rec	F
NIN	ninein (GSK3B interacting protein)	51199	14:50725872-50822056	14q24	yes		MPN			Dom	T
NKX2-1	NK2 homeobox 1	7080	14:36517278-36519357	14q13	yes		NSCLC			Dom	A
NONO	non-POU domain containing, octamer-binding	4841	X:71290638-71300076	Xq13.1	yes		papillary renal			Dom	T
NOTCH1	Notch homolog 1, translocation-associated (Drosophila) (TAN1)	4851	9:136496071-136545786	9q34.3	yes		T-ALL, breast, bladder, skin SCC, lung SCC, head and neck SCC			Dom/Rec	T, Mis, O
NOTCH2	Notch homolog 2	4853	1:119915306-120069406	1p13-p11	yes		marginal zone lymphoma, DLBCL, bladder			Dom/Rec	N, F, Mis
NPM1	nucleophosmin (nucleolar phosphoprotein B23, numatrin)	4869	5:171387949-171410565	5q35	yes		NHL, APL, AML			Dom	T, F
NR4A3	nuclear receptor subfamily 4, group A, member 3 (NOR1)	8013	9:99828041-99863867	9q22	yes		extraskeletal myxoid chondrosarcoma			Dom	T
NRAS	neuroblastoma RAS viral (v-ras) oncogene homolog	4893	1:114708535-114716160	1p13.2	yes		melanoma, MM, AML, thyroid			Dom	Mis
NRG1	neuregulin 1	3084	8:32548727-32764402	8p12	yes		NSCLC			Dom	T
NSD1	nuclear receptor binding SET domain protein 1	64324	5:177135104-177295459	5q35	yes		AML			Dom	T
NT5C2	5'-nucleotidase, cytosolic II	22978	10:103089672-103174958	10q24.32	yes		relapse ALL			Dom	Mis
NTRK1	neurotrophic tyrosine kinase, receptor, type 1	4914	1:156860935-156881642	1q21-q22	yes		papillary thyroid, Spitzoid tumour			Dom	T
NTRK3	neurotrophic tyrosine kinase, receptor, type 3	4916	15:87876935-88256153	15q25	yes		congenital fibrosarcoma, secretory breast			Dom	T
NUMA1	nuclear mitotic apparatus protein 1	4926	11:72003527-72035943	11q13	yes		APL			Dom	T
NUP214	nucleoporin 214kDa (CAN)	8021	9:131125705-131233487	9q34.1	yes		AML, T-ALL			Dom	T
NUP98	nucleoporin 98kDa	4928	11:3676159-3782117	11p15	yes		AML			Dom	T
NUTM1	NUT midline carcinoma, family member 1	256646	15:34346021-34357492	15q14	yes		lethal midline carcinoma			Dom	T
NUTM2A	NUT family member 2A	728118	10:87358266-87367372	10q23.2	yes		endometrial stromal sarcoma			Dom	T
NUTM2B	NUT family member 2B	729262	10:79703610-79712485	10q22.3	yes		endometrial stromal sarcoma			Dom	T
OLIG2	oligodendrocyte lineage transcription factor 2 (BHLHB1)	10215	21:33026863-33027834	21q22.11	yes		T-ALL			Dom	T
OMD	osteomodulin	4958	9:92415152-92417558	9q22.31	yes		aneurysmal bone cyst			Dom	T
P2RY8	purinergic receptor P2Y, G-protein coupled, 8	286530	X,Y:1465479-1466558	Xp22.3; Yp11.3	yes		B-ALL, Down syndrome associated ALL			Dom	T
PAFAH1B2	platelet-activating factor acetylhydrolase, isoform Ib, beta subunit 30kDa	5049	11:117152449-117167700	11q23	yes		MLCLS			Dom	T
PALB2	partner and localizer of BRCA2	79728	16:23603459-23641157	16p12.1		yes		Wilms tumour, medulloblastoma, AML ,breast	Fanconi anaemia N, breast cancer susceptibility	Rec	F, N, Mis
PAX3	paired box gene 3	5077	2:222201174-222298615	2q35	yes		alveolar rhabdomyosarcoma			Dom	T
PAX5	paired box gene 5 (B-cell lineage specific activator protein)	5079	9:36840560-37034031	9p13	yes		NHL, ALL, B-ALL			Dom	T, Mis, D, F, S
PAX7	paired box gene 7	5081	1:18631604-18736039	1p36.2-p36.12	yes		alveolar rhabdomyosarcoma			Dom	T
PAX8	paired box gene 8	7849	2:113218533-113278394	2q12-q14	yes		follicular thyroid			Dom	T
PBRM1	polybromo 1	55193	3:52548063-52679711	3p21	yes		clear cell renal carcinoma, breast			Rec	Mis, N, F, S, D, O
PBX1	pre-B-cell leukemia transcription factor 1	5087	1:164559824-164846677	1q23	yes		pre B-ALL, myoepithelioma			Dom	T
PCM1	pericentriolar material 1  (PTC4)	5108	8:17935611-18027662	8p22-p21.3	yes		papillary thyroid, CML, MPN			Dom	T
PCSK7	proprotein convertase subtilisin/kexin type 7	9159	11:117205997-117229844	11q23.3	yes		MLCLS			Dom	T
PDCD1LG2	programmed cell death 1 ligand 2	80380	9:5522547-5569959	9p24.2	yes		PMBL, Hodgkin lymphoma			Dom	T
PDE4DIP	phosphodiesterase 4D interacting protein (myomegalin)	9659	1:148889754-149031985	1q12	yes		MPN			Dom	T
PDGFB	platelet-derived growth factor beta polypeptide (simian sarcoma viral (v-sis) oncogene homolog)	5155	22:39225723-39243963	22q12.3-q13.1	yes		DFSP			Dom	T
PDGFRA	platelet-derived growth factor, alpha-receptor	5156	4:54258769-54295272	4q11-q13	yes	yes	GIST, idiopathic hypereosinophilic syndrome, paediatric glioblastoma	GIST	familial gastrointestinal stromal tumour	Dom	Mis, O, T
PDGFRB	platelet-derived growth factor receptor, beta polypeptide	5159	5:150115763-150137047	5q31-q32	yes		MPN, AML, CMML, CML			Dom	T
PER1	period homolog 1 (Drosophila)	5187	17:8141068-8150706	17p13.1-17p12	yes		AML, CMML			Dom	T
PHF6	PHD finger protein 6	84295	X:134377618-134425330	Xq26.3	yes		ETP ALL			Rec	F, N, S, Mis
PHOX2B	paired-like homeobox 2b	8929	4:41745807-41748610	4p12	yes	yes	neuroblastoma	neuroblastoma	familial neuroblastoma	Rec	Mis, F
PICALM	phosphatidylinositol binding clathrin assembly protein (CALM)	8301	11:85959046-86068780	11q14	yes		T-ALL, AML			Dom	T
PIK3CA	phosphoinositide-3-kinase, catalytic, alpha polypeptide	5290	3:179198826-179234364	3q26.3	yes		colorectal, gastric, glioblastoma, breast			Dom	Mis
PIK3R1	phosphoinositide-3-kinase, regulatory subunit 1 (alpha)	5295	5:68226676-68297601	5q13.1	yes		glioblastoma, ovarian, colorectal			Rec	Mis, F, O
PIM1	pim-1 oncogene	5292	6:37170576-37174091	6p21.2	yes		NHL			Dom	T
PLAG1	pleiomorphic adenoma gene 1	5324	8:56166243-56168269	8q12	yes		salivary adenoma, lipoblastoma			Dom	T
PLCG1	phospholipase C, gamma 1	5335	20:41137642-41174509	20q12-q13.1	yes		angiosarcoma			Dom	Mis
PML	promyelocytic leukemia	5371	15:73994813-74045008	15q22	yes		APL, ALL			Dom	T
PMS1	PMS1 postmeiotic segregation increased 1 (S. cerevisiae)	5378	2:189791810-189877436	2q31-q33		yes		colorectal, endometrial, ovarian	hereditary non-polyposis colorectal cancer	Rec	Mis, N
PMS2	PMS2 postmeiotic segregation increased 2 (S. cerevisiae)	5395	7:5973399-6009019	7p22		yes		colorectal, endometrial, ovarian, medulloblastoma, glioma	hereditary non-polyposis colorectal cancer, Turcot syndrome	Rec	Mis, N, F
POLE	polymerase (DNA directed), epsilon, catalytic subunit	5426	12:132624697-132687315	12q24.3	yes	yes	colorectal carcinoma, endometrioid carcinoma, stomach carcinoma, skin cancer	colorectal cancer susceptibility		Rec	Mis
POT1	protection of telomeres 1	25913	7:124823962-124897173	7q31.33	yes		CLL				Mis, N
POU2AF1	POU domain, class 2, associating factor 1 (OBF1)	5450	11:111354261-111379177	11q23.1	yes		NHL			Dom	T
POU5F1	POU domain, class 5, transcription factor 1	5460	6:31164601-31170620	6p21.31	yes		sarcoma			Dom	T
PPARG	peroxisome proliferative activated receptor, gamma	5468	3:12351593-12434145	3p25	yes		follicular thyroid			Dom	T
PPFIBP1	PTPRF interacting protein, binding protein 1 (liprin beta 1)	8496	12:27633397-27692882	12p12.1	yes		Spitzoid tumour, inflammatory myofibroblastic tumour			Dom	T
PPP2R1A	protein phosphatase 2, regulatory subunit A, alpha	5518	19:52190097-52225981	19q13.41	yes		clear cell ovarian carcinoma			Dom?	Mis
PPP6C	protein phosphatase 6, catalytic subunit	5537	9:125149673-125189718	9q33.3	yes		melanoma			Dom	Mis
PRCC	papillary renal cell carcinoma (translocation-associated)	5546	1:156767772-156800460	1q21.1	yes		papillary renal			Dom	T
PRDM1	PR domain containing 1, with ZNF domain	639	6:106088267-106107486	6q21	yes		DLBCL			Rec	D, N, Mis, F, S
PRDM16	PR domain containing 16	63976	1:3069260-3433811	1p36.23-p33	yes		MDS, AML			Dom	T
PRF1	perforin 1 (pore forming protein)	5551	10:70598053-70600902	10q22		yes		various leukaemia, lymphoma		Rec	M
PRKAR1A	protein kinase, cAMP-dependent, regulatory, type I, alpha (tissue specific extinguisher 1)	5573	17:68515400-68530449	17q23-q24	yes	yes	papillary thyroid	myxoma, endocrine, papillary thyroid	Carney complex	Dom, Rec	T, Mis, N, F, S
PRRX1	paired related homeobox 1	5396	1:170664220-170730332	1q24	yes		AML			Dom	T
PSIP1	PC4 and SFRS1 interacting protein 1 (LEDGF)	11168	9:15471207-15510188	9p22.3	yes		AML			Dom	T
PTCH1	Homolog of Drosophila Patched gene	5727	9:-	9q22.3	yes	yes	skin basal cell, medulloblastoma	skin basal cell, medulloblastoma	nevoid basal cell carcinoma syndrome	Rec	Mis, N, F, S
PTEN	phosphatase and tensin homolog gene	5728	10:87864470-87965472	10q23.3	yes	yes	glioma, prostate, endometrial	harmartoma, glioma, prostate, endometrial	Cowden syndrome, Bannayan-Riley-Ruvalcaba syndrome	Rec	D, Mis, N, F, S
PTPN11	protein tyrosine phosphatase, non-receptor type 11	5781	12:112419112-112504764	12q24.1	yes		JMML, AML, MDS			Dom	Mis
PTPRB	protein tyrosine phosphatase, receptor type, B	5787	12:70521489-70609814	12q15-q21	yes		angiosarcoma			Rec	N, Mis, S, F
PTPRC	protein tyrosine phosphatase, receptor type, C	5788	1:198639275-198756181	1q31-q32	yes		T-ALL			Rec	Mis, N, S
PTPRK	protein tyrosine phosphatase, receptor type, K	5796	6:127970227-128520358	6q22.2-q22.3	yes		colorectal			Dom	T
PWWP2A	PWWP domain containing 2A	114825	5:160078155-160119388	5q33.3	yes		Spitzoid tumour			Dom	T
RABEP1	rabaptin, RAB GTPase binding effector protein 1	9135	17:5282488-5383224	17p13.2	yes		CMML			Dom	T
RAC1	ras-related C3 botulinum toxin substrate 1 (rho family, small GTP binding protein Rac1)	5879	7:6374736-6402446	7p22	yes		melanoma, carcinoma			Dom	Mis, F
RAD21	RAD21 homolog (S. pombe)	5885	8:116847500-116866729	8q24.11	yes		AML, endometrium, colorectal, lung			Rec	Mis, N, F
RAD51B	RAD51 paralog B	5890	14:67823544-68594603	14q23-q24.2	yes		lipoma, uterine leiomyoma			Dom	T
RAF1	v-raf-1 murine leukemia viral oncogene homolog 1	5894	3:12584514-12618721	3p25	yes		pilocytic astrocytoma, prostate			Dom	T
RALGDS	ral guanine nucleotide dissociation stimulator	5900	9:133098587-133121154	9q34.3	yes		PMBL, Hodgkin lymphoma,			Dom	T
RANBP17	RAN binding protein 17	64901	5:170862034-171298858	5q34	yes		ALL			Dom	T
RANBP2	RAN binding protein 2	5903	2:108719607-108783901	2q12.3	yes		inflammatory myofibroblastic tumour			Dom	T
RAP1GDS1	RAP1, GTP-GDP dissociation stimulator 1	5910	4:98261566-98442117	4q21-q25	yes		T-ALL			Dom	T
RARA	retinoic acid receptor, alpha	5914	17:40331219-40356226	17q12	yes		APL			Dom	T
RB1	retinoblastoma gene	5925	13:48303913-48480071	13q14	yes	yes	retinoblastoma, sarcoma, breast, small cell lung carcinoma	retinoblastoma, sarcoma, breast, small cell lung carcinoma	familial retinoblastoma	Rec	D, Mis, N, F, S
RBM15	RNA binding motif protein 15	64783	1:110339407-110345610	1p13	yes		acute megakaryocytic leukaemia			Dom	T
RECQL4	RecQ protein-like 4	9401	8:144511431-144517784	8q24.3		yes		osteosarcoma, skin basal cell, skin sqamous cell	Rothmund-Thompson syndrome	Rec	N, F, S
REL	v-rel reticuloendotheliosis viral oncogene homolog (avian)	5966	2:60881841-60922535	2p13-p12	yes		Hodgkin lymphoma			Dom	A
RET	ret proto-oncogene	5979	10:43077259-43128269	10q11.2	yes	yes	medullary thyroid, papillary thyroid, pheochromocytoma, NSCLC, Spitzoid tumour	medullary thyroid,  papillary thyroid, pheochromocytoma	multiple endocrine neoplasia 2A/2B	Dom	T, Mis, N, F
RHOA	ras homolog family member A	387	3:49360209-49375589	3p21.3	yes		diffuse gastric, T cell lymphomas, paediatric Burkitt lymphoma			Dom	Mis, F, O
RHOH	ras homolog family member H	399	4:40243387-40243962	4p13	yes		NHL			Dom	T
RMI2	RecQ mediated genome instability 2	116028	16:11345472-11350790	16p13.13	yes		PMBL, Hodgkin lymphoma			Dom	T
RNF213	ring finger protein 213	57674	17:80340149-80393498	17q25.3	yes		ALCL			Dom	T
RNF217-AS1	RNF217 antisense RNA 1 (head to head)	7955	6:-	6q22.33	yes		B-ALL			Dom	T
RNF43	ring finger protein 43	54894	17:58354943-58415577	17q23.2	yes		cholangiocarcinoma, ovary, pancreas			Rec	Mis, N, F, S
ROS1	v-ros UR2 sarcoma virus oncogene homolog 1 (avian)	6098	6:117288492-117425656	6q22	yes		glioblastoma, NSCLC, Spitzoid tumour			Dom	T
RPL10	ribosomal protein L10	6134	X:154398520-154400854	Xq28	yes		T-ALL			Dom	Mis
RPL22	ribosomal protein L22 (EAP)	6146	1:6186672-6199573	1p36.31	yes		AML, CML			Dom	T
RPL5	ribososomal protein L5	6125	1:92832115-92841865	1p22.1	yes		T-ALL			Dom	Mis, N, F
RPN1	ribophorin I	6184	3:128620411-128650800	3q21.3-q25.2	yes		AML			Dom	T
RSPO2	R-spondin 2	340419	8:107901075-108082638	8q23.1	yes		colorectal			Dom	T
RSPO3	R-spondin 3	84870	6:127119193-127196007	6q22.33	yes		colorectal			Dom	T
RUNDC2A	RUN domain containing 2A	84127	16:11976807-12052226	16p13.13	yes		PMBL, Hodgkin lymphoma			Dom	T
RUNX1	runt-related transcription factor 1  (AML1)	861	21:34792135-35048899	21q22.3	yes		AML, preB- ALL, T-ALL			Dom	T
RUNX1T1	runt-related transcription factor 1; translocated to, 1 (cyclin D-related)	862	8:91960242-92017340	8q22	yes		AML			Dom	T
SBDS	Shwachman-Bodian-Diamond syndrome protein	51119	7:66988371-66995417	7q11		yes		AML, MDS	Schwachman-Diamond syndrome	Rec	Gene Conversion
SDC4	syndecan 4	6385	20:45327264-45348384	20q12	yes		NSCLC			Dom	T
SDHAF2	succinate dehydrogenase complex assembly factor 2	54949	11:61430147-61446071	11q12.2		yes		paraganglioma	familial paraganglioma	Rec	M
SDHB	succinate dehydrogenase complex, subunit B, iron sulfur (Ip)	6390	1:17018881-17054019	1p36.1-p35		yes		paraganglioma, pheochromocytoma	familial paraganglioma	Rec	Mis, N, F
SDHC	succinate dehydrogenase complex, subunit C, integral membrane protein, 15kDa	6391	1:161314406-161362433	1q21		yes		paraganglioma, pheochromocytoma	familial paraganglioma	Rec	Mis, N, F
SDHD	succinate dehydrogenase complex, subunit D, integral membrane protein	6392	11:112086908-112094970	11q23		yes		paraganglioma, pheochromocytoma	familial paraganglioma	Rec	Mis, N, F, S
Sep-05	septin 5	5413	22:19714590-19722485	22q11.21	yes		AML			Dom	T
Sep-06	septin 6	23157	X:119618762-119693105	Xq24	yes		AML			Dom	T
Sep-09	septin 9	10801	17:77320327-77498658	17q25	yes		AML*			Dom	T
SET	SET translocation	6418	9:128689583-128694664	9q34	yes		AML			Dom	T
SETBP1	SET binding protein 1	26040	18:44701347-45063698	18q21.1	yes	yes	aCML, sAML, MDS/MPN-U, CMML, JMML	neuroepithelial tumours	Schinzel-Giedion syndrome	Dom	Mis
SETD2	SET domain containing 2	29072	3:47017093-47123126	3p21.31	yes		clear cell renal carcinoma			Rec	N, F, S, Mis
SF3B1	splicing factor 3b, subunit 1, 155kDa	23451	2:197392303-197434999	2q33.1	yes		myelodysplastic syndrome			Dom	Mis
SFPQ	splicing factor proline/glutamine rich(polypyrimidine tract binding protein associated)	6421	1:35184456-35193049	1p34.3	yes		papillary renal			Dom	T
SH2B3	SH2B adaptor protein 3	10019	12:111418146-111448302	12q24.12	yes		MPN, sAML, erythrocytosis, B-ALL			Rec?	Mis, F, N
SH3GL1	SH3-domain GRB2-like 1 (EEN)	6455	19:4361600-4400368	19p13.3	yes		AL			Dom	T
SLC34A2	solute carrier family 34 (sodium phosphate), member 2	10568	4:25662501-25676749	4p15.2	yes		NSCLC			Dom	T
SLC45A3	solute carrier family 45, member 3	85414	1:205659234-205664656	1q32	yes		prostate			Dom	T
SMAD4	SMAD family member 4	4089	18:-	18q21.1	yes	yes	colorectal, pancreatic, small intestine	gastrointestinal polyp	juvenile polyposis	Rec	D, Mis, N, F
SMARCA4	SWI/SNF related, matrix associated, actin dependent regulator of chromatin, subfamily a, member 4	6597	19:10984152-11061816	19p13.2	yes		NSCLC, SCCOHT			Rec	F, N, Mis, S
SMARCB1	SWI/SNF related, matrix associated, actin dependent regulator of chromatin, subfamily b, member 1	6598	22:23787170-23834180	22q11	yes	yes	malignant rhabdoid	malignant rhabdoid	rhabdoid predisposition syndrome	Rec	D, N, F, S
SMARCD1	SWI/SNF related, matrix associated, actin dependent regulator of chromatin, subfamily d, member 1	6602	12:50085487-50099000	12q13-q14	yes		breast			Rec	N
SMARCE1	SWI/SNF related, matrix associated, actin dependent regulator of chromatin, subfamily e, member 1	6605	17:40628785-40645626	17q21.2		yes		meningioma		Rec	F, Mis, N
SMO	smoothened homolog (Drosophila)	6608	7:129189152-129212451	7q31-q32	yes		skin basal cell			Dom	Mis
SND1	staphylococcal nuclease and tudor domain containing 1	27044	7:127652374-128092058	7q31.3	yes		pancreas acinar carcinoma			Dom	T
SOCS1	suppressor of cytokine signaling 1	8651	16:11254843-11255478	16p13.13	yes		Hodgkin lymphoma, PMBL			Rec	F, O
SOX2	SRY (sex determining region Y)-box 2	6657	3:181712361-181713314	3q26.3-q27	yes		NSCLC, oesophageal squamous carcinoma			Dom	A
SPECC1	sperm antigen with calponin homology and coiled-coil domains 1	92521	17:20096653-20314066	17p11.2	yes		JMML			Dom	T
SPEN	spen family transcriptional repressor	23013	1:15848068-15939427	1p36	yes		SMZL, adenoid cystic carcinoma, DLBCL			Rec	F, Mis, N
SPOP	speckle-type POZ protein	8405	17:49600378-49622810	17q21.33	yes		prostate, serous endometrial			Rec	Mis
SRGAP3	SLIT-ROBO Rho GTPase activating protein 3	9901	3:8985519-9248951	3p25.3	yes		pilocytic astrocytoma			Dom	T
SRSF2	serine/arginine-rich splicing factor 2	6427	17:76736161-76737160	17q25	yes		MDS, CLL			Dom	Mis
SRSF3	serine/arginine-rich splicing factor 3	6428	6:36596763-36601989	6p21	yes		follicular lymphoma			Dom	T
SS18	synovial sarcoma translocation, chromosome 18	6760	18:26018354-26090569	18q11.2	yes		synovial sarcoma			Dom	T
SS18L1	synovial sarcoma translocation gene on chromosome 18-like 1	26039	20:62143822-62179209	20q13.3	yes		synovial sarcoma			Dom	T
SSX1	synovial sarcoma, X breakpoint 1	6756	X:48257242-48266387	Xp11.23-p11.22	yes		synovial sarcoma			Dom	T
SSX2	synovial sarcoma, X breakpoint 2	6757	X:52752681-52789480	Xp11.23-p11.22	yes		synovial sarcoma			Dom	T
SSX4	synovial sarcoma, X breakpoint 4	6759	X:48391869-48411372	Xp11.23	yes		synovial sarcoma			Dom	T
STAG2	stromal antigen 2	10735	X:124022628-124100597	Xq25	yes		bladder carcinoma, glioblastoma, melanoma, Ewing's sarcoma, myeloid neoplasms			Rec	Mis, N, F, S
STAT3	signal transducer and activator of transcription 3 (acute-phase response factor)	6774	17:42315745-42348516	17q21.31	yes	yes	T-cell large granular lymphocytic leukaemia	paediatric large granular lymphocytic leukaemia		Dom	Mis,O
STAT5B	signal transducer and activator of transcription 5B	6777	17:42201738-42232127	17q11.2	yes		large granular lymphocytic leukaemia, skin basal cell, APL			Dom	Mis, O
STAT6	signal transducer and activator of transcription 6, interleukin-4 induced	6778	12:57096572-57108278	12q13	yes		solitary fibrous tumour, meningeal haemangiopericytoma			Dom	T
STIL	SCL/TAL1 interrupting locus	6491	1:47251136-47310319	1p32	yes		T-ALL			Dom	T
STK11	serine/threonine kinase 11 gene (LKB1)	6794	19:1206914-1226647	19p13.3	yes	yes	NSCLC, pancreatic	jejunal hamartoma, ovarian, testicular, pancreatic	Peutz-Jeghers syndrome	Rec	D, Mis, N, F, S
STRN	striatin, calmodulin binding protein	6801	2:36849456-36966463	2p22.2	yes		anaplastic thyroid, papillary thyroid, lung			Dom	T
SUFU	suppressor of fused homolog (Drosophila)	51684	10:102504153-102630155	10q24.32	yes	yes	medulloblastoma	medulloblastoma	medulloblastoma predisposition	Rec	D, F, S
SUZ12	suppressor of zeste 12 homolog (Drosophila)	23512	17:31937247-31999003	17q11.2	yes		endometrial stromal tumour			Dom	T
SYK	spleen tyrosine kinase	6850	9:90843899-90895600	9q22	yes		MDS, peripheral T-cell lymphoma			Dom	T
TAF15	TAF15 RNA polymerase II, TATA box binding protein (TBP)-associated factor, 68kDa	8148	17:35809571-35846946	17q11.1-q11.2	yes		extraskeletal myxoid chondrosarcoma, ALL			Dom	T
TAL1	T-cell acute lymphocytic leukemia 1 (SCL)	6886	1:47219720-47225888	1p32	yes		lymphoblastic leukaemia/biphasic			Dom	T
TAL2	T-cell acute lymphocytic leukemia 2	6887	9:108424779-108425393	9q31	yes		T-ALL			Dom	T
TBL1XR1	transducin (beta)-like 1 X-linked receptor 1	79718	3:177025498-177064977	3q26.32	yes		splenic marginal zone lymphoma, primary central nervous system lymphoma, colorectal carcinoma, gallbladder carcinoma			Rec	F, Mis
TBX3	T-box 3	6926	12:114671841-114683200	12q24.21	yes		breast				F
TCEA1	transcription elongation factor A (SII), 1	6917	8:53970288-53984488	8q11.2	yes		salivary adenoma			Dom	T
TCF12	transcription factor 12 (HTF4, helix-loop-helix transcription factors 4)	6938	15:56919914-57288514	15q21	yes		extraskeletal myxoid chondrosarcoma			Dom	T
TCF3	transcription factor 3 (E2A immunoglobulin enhancer binding factors E12/E47)	6929	19:1611707-1650248	19p13.3	yes		pre B-ALL			Dom	T
TCF7L2	transcription factor 7-like 2	6934	10:112950757-113165972	10q25.3	yes		colorectal			Dom	T
TCL1A	T-cell leukemia/lymphoma 1A	8115	14:95711755-95714066	14q32.1	yes		T-CLL			Dom	T
TCL6	T-cell leukemia/lymphoma 6	27004	14:95665061-95671429	14q32.1	yes		T-ALL			Dom	T
TERT	telomerase reverse transcriptase	7015	5:1253728-1294989	5p15.33	yes	yes	melanoma, glioblastoma, hepatocellular carcinoma, bladder, skin basal cell, skin squamous cell, mesothelioma, medulloblastoma, other tumour types	melanoma		Dom	Promoter Mis
TET1	tet methylcytosine dioxygenase 1	80312	10:68572340-68691815	10q21	yes		AML			Dom	T
TET2	tet oncogene family member 2	54790	4:105233943-105276519	4q24	yes		MDS			Rec	Mis, N, F
TFE3	transcription factor binding to IGHM enhancer 3	7030	X:49030158-49043226	Xp11.22	yes		papillary renal, alveolar soft part sarcoma, renal			Dom	T
TFEB	transcription factor EB	7942	6:41684599-41691213	6p21	yes		renal cell carcinoma (childhood epithelioid)			Dom	T
TFG	TRK-fused gene	10342	3:100713687-100748532	3q11-q12	yes		papillary thyroid, ALCL, NSCLC, extraskeletal myxoid chondrosarcoma			Dom	T
TFPT	TCF3 (E2A) fusion partner (in childhood leukaemia)	29844	19:54107050-54115269	19q13	yes		pre-B ALL			Dom	T
TFRC	transferrin receptor (p90, CD71)	7037	3:196051942-196077099	3q29	yes		NHL			Dom	T
THRAP3	thyroid hormone receptor associated protein 3 (TRAP150)	9967	1:36282564-36304017	1p34.3	yes		aneurysmal bone cyst			Dom	T
TLX1	T-cell leukemia, homeobox 1 (HOX11)	3195	10:101131543-101136914	10q24	yes		T-ALL			Dom	T
TLX3	T-cell leukemia, homeobox 3 (HOX11L2)	30012	5:171309367-171311600	5q35.1	yes		T-ALL			Dom	T
TMPRSS2	transmembrane protease, serine 2	7113	21:41466142-41498133	21q22.3	yes		prostate			Dom	T
TNFAIP3	tumor necrosis factor, alpha-induced protein 3	7128	6:137871228-137881319	6q23	yes		marginal zone B-cell lymphomas, Hodgkin lymphoma, PMBL			Rec	D, N, F
TNFRSF14	tumor necrosis factor receptor superfamily, member 14 (herpesvirus entry mediator)	8764	1:2556665-2563273	1p36.32	yes		follicular lymphoma			Rec	Mis, N, F
TNFRSF17	tumor necrosis factor receptor superfamily, member 17	608	16:11965325-11967847	16p13.1	yes		intestinal T-cell lymphoma			Dom	T
TOP1	topoisomerase (DNA) I	7150	20:41029068-41123297	20q12-q13.1	yes		AML*			Dom	T
TP53	tumor protein p53	7157	17:7669609-7676594	17p13	yes	yes	breast, colorectal, lung, sarcoma, adrenocortical, glioma, Spitzoid tumour, multiple other tumour types	breast, sarcoma, adrenocortical carcinoma, glioma, multiple other tumour types	Li-Fraumeni syndrome	Rec	Mis, N, F, T
TPM3	tropomyosin 3	7170	1:154157639-154183119	1q22-q23	yes		papillary thyroid, ALCL, NSCLC, Spitzoid tumour			Dom	T
TPM4	tropomyosin 4	7171	19:16076567-16101347	19p13.1	yes		ALCL			Dom	T
TPR	translocated promoter region	7175	1:186313971-186375028	1q25	yes		papillary thyroid, NSCLC			Dom	T
TRA	T cell receptor alpha locus	6955	14:-	14q11.2	yes		T-ALL			Dom	T
TRAF7	tumour necrosis factor receptor-associated factor 7	84231	16:2163921-2176574	16p13.3	yes		meningioma			Dom	Mis
TRB	T cell receptor beta locus	6957	7:-	7q34	yes		T-ALL			Dom	T
TRD	T cell receptor delta locus	6964	14:-	14q11.2	yes		T-cell leukaemia			Dom	T
TRIM24	tripartite motif containing 24	8805	7:138460549-138584951	7q32-q34	yes		APL			Dom	T
TRIM27	tripartite motif-containing 27	5987	6:28904070-28923632	6p22	yes		papillary thyroid			Dom	T
TRIM33	tripartite motif-containing 33 (PTC7,TIF1G)	51592	1:114397648-114511076	1p13	yes		papillary thyroid			Dom	T
TRIP11	thyroid hormone receptor interactor 11	9321	14:91969673-92039685	14q31-q32	yes		AML			Dom	T
TRRAP	transformation/transcription domain-associated protein	8295	7:98881151-99012355	7q21.2-q22.1	yes		melanoma			Dom	Mis
TSC1	tuberous sclerosis 1 gene	7248	9:132896235-132928872	9q34	yes	yes	renal cell carcinoma, bladder carcinoma	hamartoma, renal cell carcinoma, tuberous sclerosis tuber	Tuberous sclerosis 1	Rec	D, Mis, N, F, S
TSC2	tuberous sclerosis 2 gene	7249	16:2048616-2088610	16p13.3	yes	yes	pulmonary lymphangioleiomyomatosis (LAM), renal angiomyolipoma, HNSCC	hamartoma, renal cell carcinoma, tuberous sclerosis tuber	Tuberous sclerosis 2	Rec	D, Mis, N, F, S
TSHR	thyroid stimulating hormone receptor	7253	14:80955681-81144353	14q31	yes	yes	toxic thyroid adenoma	thyroid adenoma		Dom	Mis
TTL	tubulin tyrosine ligase	150465	2:112482346-112528796	2q13	yes		ALL			Dom	T
U2AF1	U2 small nuclear RNA auxiliary factor 1	7307	21:43093102-43107494	21q22.3	yes		CLL, MDS			Dom	Mis
UBR5	ubiquitin protein ligase E3 component n-recognin 5	51366	8:102254302-102412234	8q22	yes		mantle cell lymphoma, gastric, colorectal			Rec	F, N, Mis, S
USP6	ubiquitin specific peptidase 6 (Tre-2 oncogene)	9098	17:5130368-5148597	17p13	yes		aneurysmal bone cyst			Dom	T
VHL	von Hippel-Lindau syndrome gene	7428	3:10141848-10149965	3p25	yes	yes	renal, haemangioma, pheochromocytoma	renal, haemangioma, pheochromocytoma	Von Hippel-Lindau syndrome	Rec	D, Mis, N, F, S
VTI1A	vesicle transport through interaction with t-SNAREs homolog 1A	143187	10:112447374-112815383	10q25.2	yes		colorectal			Dom	T
WAS	Wiskott-Aldrich syndrome	7454	X:48683854-48691162	Xp11.23-p11.22		yes		lymphoma	Wiskott-Aldrich syndrome	X-linked recessive	Mis, N, F, S
WHSC1	Wolf-Hirschhorn syndrome candidate 1(MMSET)	7468	4:1900655-1978909	4p16.3	yes		MM			Dom	T
WHSC1L1	Wolf-Hirschhorn syndrome candidate 1-like 1 (NSD3)	54904	8:38317956-38348171	8p12	yes		AML			Dom	T
WIF1	WNT inhibitory factor 1	11197	12:65051349-65121191	12q14.3	yes		pleomorphic salivary gland adenoma			Dom	T
WRN	Werner syndrome (RECQL2)	7486	8:31058448-31173102	8p12-p11.2		yes		osteosarcoma, meningioma, other tumour types	Werner syndrome	Rec	Mis, N, F, S
WT1	Wilms tumour 1 gene	7490	11:32389058-32435141	11p13	yes	yes	Wilms tumour, desmoplastic small round cell tumour	Wilms tumour	Denys-Drash syndrome, Frasier syndrome, familial Wilms tumour	Rec	D, Mis, N, F, S
WWTR1	WW domain containing transcription regulator 1	25937	3:149520805-149657306	3q23-q24	yes		epithelioid haemangioendothelioma			Dom	T
XPA	xeroderma pigmentosum, complementation group A	7507	9:97675439-97697292	9q22.3		yes		skin basal cell, skin squamous cell, melanoma	xeroderma pigmentosum (A)	Rec	Mis, N, F, S
XPC	xeroderma pigmentosum, complementation group C	7508	3:14145941-14178568	3p25		yes		skin basal cell, skin squamous cell, melanoma	xeroderma pigmentosum (C)	Rec	Mis, N, F, S
XPO1	exportin 1 (CRM1 homolog, yeast)	7514	2:61478820-61533897	2p15	yes		CLL			Dom	Mis
YWHAE	tyrosine 3-monooxygenase/tryptophan 5-monooxygenase activation protein, epsilon polypeptide (14-3-3 epsilon)	7531	17:1345447-1400110	17p13.3	yes		endometrial stromal sarcoma			Dom	T
ZBTB16	zinc finger and BTB domain containing 16	7704	11:114063302-114250556	11q23.1	yes		APL			Dom	T
ZCCHC8	zinc finger, CCHC domain containing 8	55596	12:122473497-122500840	12q24.31	yes		Spitzoid tumour			Dom	T
ZNF198	zinc finger protein 198	7750	13:19993073-20086014	13q11-q12	yes		MPN, NHL			Dom	T
ZNF278	zinc finger protein 278 (ZSG)	23598	22:31341405-31345602	22q12-q14	yes		Ewing sarcoma			Dom	T
ZNF331	zinc finger protein 331	55422	19:53569378-53577953	19q13.3-q13.4	yes		follicular thyroid adenoma			Dom	T
ZNF384	zinc finger protein 384 (CIZ/NMP4)	171017	12:6667714-6679520	12p13	yes		ALL			Dom	T
ZNF521	zinc finger protein 521	25925	18:25062712-25350946	18q11.2	yes		ALL			Dom	T
ZRSR2	zinc finger (CCCH type), RNA-binding motif and serine/arginine rich 2	8233	X:15790496-15823242	Xp22.1	yes		MDS, CLL			Rec	F, S, Mis